EDS 222: Homework 1
…
Code

# Pool the data from both data frames together
comb_data <- bind_rows(crowdsourced, govt)

print(paste("Here is the new dataset that has pooled both the government and crowd-sourced data:"))

[1] "Here is the new dataset that has pooled both the government and crowd-sourced data:"

Code

print(comb_data)

# A tibble: 7,448 × 5
   date          PM longitude latitude lat_long
   <date>     <dbl>     <dbl>    <dbl>    <int>
 1 2018-11-04    71      74.4     31.6       11
 2 2018-11-05    51      74.4     31.6       11
 3 2018-11-06    63      74.4     31.6       11
 4 2018-11-07    89      74.4     31.6       11
 5 2018-11-08    29      74.4     31.6       11
 6 2018-11-09    43      74.4     31.6       11
 7 2018-11-10    47      74.4     31.6       11
 8 2018-11-11    47      74.4     31.6       11
 9 2018-11-12    82      74.4     31.6       11
10 2018-11-13    85      74.4     31.6       11
# ℹ 7,438 more rows
…
# Create a subset of 'comb_data' with 1000 random observations
# Set seed for reproducibility
set.seed(454)
rand_samp <- comb_data %>% sample_n(1000)

print(paste("Here is a new dataset with a random sample of 1000 observations drawn from the pooled dataset."))

[1] "Here is a new dataset with a random sample of 1000 observations drawn from the pooled dataset."

Code

print(rand_samp)

# A tibble: 1,000 × 5
   date          PM longitude latitude lat_long
   <date>     <dbl>     <dbl>    <dbl>    <int>
 1 2019-10-13    56      74.4     31.6       14
 2 2019-06-06   114      74.3     31.6        6
 3 2019-10-30    79      74.4     31.6        9
 4 2018-12-25    27      74.4     31.6       12
 5 2018-12-10    45      74.3     31.6        2
 6 2019-05-04    94      74.4     31.6        9
 7 2019-06-19    52      74.4     31.6       12
 8 2019-04-21    58      74.3     31.6        5
 9 2019-08-27   106      74.4     31.6       10
10 2019-02-05    74      74.4     31.6       11
# ℹ 990 more rows
…
print(paste("Here is a stratified dataset with a random sample of 200 observations drawn from the pooled dataset."))

[1] "Here is a stratified dataset with a random sample of 200 observations drawn from the pooled dataset."

Code

print(strat_data)

# A tibble: 1,000 × 6
   date          PM longitude latitude lat_long lat_stratum
   <date>     <dbl>     <dbl>    <dbl>    <int>       <dbl>
 1 2019-06-06   108      74.3     31.6        2        31.6
 2 2019-05-07    79      74.3     31.6        5        31.6
 3 2018-12-25    35      74.3     31.6        5        31.6
 4 2019-04-17    88      74.3     31.6        5        31.6
 5 2018-11-09    77      74.3     31.6        5        31.6
 6 2019-06-19    60      74.3     31.6        5        31.6
 7 2019-02-05    21      74.3     31.6        4        31.6
 8 2018-12-17    42      74.3     31.6        5        31.6
 9 2019-03-15   118      74.3     31.6        5        31.6
10 2019-03-10    43      74.3     31.6        2        31.6
# ℹ 990 more rows
…
